array (
  'transactionid' => '20689',
)
array (
  'transactionid' => '20689',
)
array (
  'transactionid' => '20689',
)
array (
  'transactionid' => '20689',
)
array (
  'transactionid' => '20689',
)
array (
  'transactionid' => '20689',
)
array (
  'transactionid' => '20689',
)
array (
  'transactionid' => '20689',
)
array (
  'transactionid' => '20689',
)
array (
  'transactionid' => '20689',
)
array (
  'transactionid' => '20689',
)
array (
  'transactionid' => '20689',
)
array (
  'transactionid' => '20689',
)
array (
  'transactionid' => '20689',
)
array (
  'transactionid' => '20689',
)
array (
  'transactionid' => '20689',
)
array (
  'transactionid' => '20689',
)
array (
  'transactionid' => '20689',
)
array (
  'transactionid' => '20689',
)
array (
  'transactionid' => '20689',
)
array (
  'transactionid' => '20689',
)
array (
  'transactionid' => '20689',
)
array (
  'transactionid' => '20689',
)
array (
  'transactionid' => '20689',
)
array (
  'transactionid' => '20689',
)
array (
  'transactionid' => '20689',
)
array (
  'transactionid' => '20689',
)
array (
  'transactionid' => '20689',
)
array (
  'transactionid' => '20689',
)
array (
  'transactionid' => '20689',
)
array (
  'transactionid' => '20689',
)
array (
  'transactionid' => '20690',
)
array (
  'transactionid' => '20689',
)
array (
  'transactionid' => '20689',
)
array (
  'transactionid' => '20689',
)
array (
  'transactionid' => '20689',
)
array (
  'transactionid' => '20700',
)
array (
  'transactionid' => '20710',
)
array (
  'transactionid' => '20711',
)
array (
  'transactionid' => '20729',
)
array (
  'transactionid' => '20731',
)
array (
  'transactionid' => '20752',
)
array (
  'transactionid' => '20779',
)
array (
  'transactionid' => '20815',
)
array (
  'transactionid' => '584',
)
array (
  'transactionid' => '584',
)
array (
  'transactionid' => '584',
)
array (
  'transactionid' => '584',
)
array (
  'transactionid' => '584',
)
array (
  'transactionid' => '584',
)
array (
  'transactionid' => '584',
)
array (
  'transactionid' => '584',
)
array (
  'transactionid' => '585',
)
array (
  'transactionid' => '591',
)
array (
  'transactionid' => '592',
)
array (
  'transactionid' => '598',
)
array (
  'transactionid' => '602',
)
array (
  'transactionid' => '105256',
)
array (
  'transactionid' => '105257',
)
array (
  'transactionid' => '105272',
)
array (
  'transactionid' => '105272',
)
array (
  'transactionid' => '105272',
)
array (
  'transactionid' => '105272',
)
array (
  'transactionid' => '105272',
)
array (
  'transactionid' => '105272',
)
array (
  'transactionid' => '105272',
)
array (
  'transactionid' => '105272',
  'test' => '1',
)
array (
  'transactionid' => '105272',
  'test' => '1',
)
array (
  'transactionid' => '105272',
  'test' => '1',
)
array (
  'transactionid' => '105272',
  'test' => '1',
)
array (
  'transactionid' => '105272',
  'test' => '1',
)
array (
  'transactionid' => '105272',
  'test' => '1',
)
array (
  'transactionid' => '105272',
  'test' => '1',
)
array (
  'transactionid' => '105272',
  'test' => '1',
)
array (
  'transactionid' => '105272',
  'test' => '1',
)
array (
  'transactionid' => '105272',
  'test' => '1',
)
array (
  'transactionid' => '105272',
  'test' => '1',
)
array (
  'transactionid' => '105272',
  'test' => '1',
)
array (
  'transactionid' => '105272',
  'test' => '1',
)
array (
  'transactionid' => '105272',
  'test' => '1',
)
array (
  'transactionid' => '105272',
  'test' => '1',
)
array (
  'transactionid' => '105272',
  'test' => '1',
)
array (
  'transactionid' => '105273',
)
array (
  'transactionid' => '105275',
)
array (
  'transactionid' => '105275',
)
array (
  'transactionid' => '105275',
)
array (
  'transactionid' => '105275',
)
array (
  'transactionid' => '105275',
)
array (
  'transactionid' => '105275',
)
array (
  'transactionid' => '105275',
)
array (
  'transactionid' => '105275',
)
array (
  'transactionid' => '105275',
)
array (
  'transactionid' => '105290',
)
array (
  'transactionid' => '105300',
)
array (
)
array (
  'transactionid' => '105396',
)
array (
  'transactionid' => '105892',
)
array (
  'transactionid' => '106500',
)
array (
)
array (
  'transactionid' => '552',
)
array (
  'transactionid' => '552',
)
array (
  'transactionid' => '552',
)
array (
  'transactionid' => '552',
)
array (
  'transactionid' => '552',
)
array (
  'transactionid' => '552',
)
array (
  'transactionid' => '552',
)
array (
  'transactionid' => '553',
)
array (
  'transactionid' => '554',
)
array (
  'transactionid' => '555',
)
array (
  'transactionid' => '6594',
)
array (
  'transactionid' => '6638',
)
array (
  'transactionid' => '6652',
)
array (
  'transactionid' => '6653',
)
array (
  'transactionid' => '6680',
)
