<svg xmlns="http://www.w3.org/2000/svg" xmlns:xlink="http://www.w3.org/1999/xlink" width="16" height="14" viewBox="0 0 16 14">
  <defs>
    <clipPath id="clip-path">
      <rect width="16" height="14" fill="none"/>
    </clipPath>
  </defs>
  <g id="Folder_Icon" data-name="Folder Icon" clip-path="url(#clip-path)">
    <g id="Folder_Icon-2" data-name="Folder Icon">
      <g id="Rectangle" transform="translate(0 4)" fill="#ffe69b" stroke="#e4bb59" stroke-miterlimit="10" stroke-width="1">
        <path d="M0,0H16a0,0,0,0,1,0,0V9a1,1,0,0,1-1,1H1A1,1,0,0,1,0,9V0A0,0,0,0,1,0,0Z" stroke="none"/>
        <rect x="0.5" y="0.5" width="15" height="9" rx="0.5" fill="none"/>
      </g>
      <g id="Rectangle_Copy_4" data-name="Rectangle Copy 4" transform="translate(0 0)" fill="#fff7e1" stroke-miterlimit="10">
        <path d="M 15.5 4.5 L 0.5 4.5 L 0.5 1 C 0.5 0.7243000268936157 0.7243000268936157 0.5 1 0.5 L 6.17156982421875 0.5 C 6.572239875793457 0.5 6.948919773101807 0.656029999256134 7.232240200042725 0.9393399953842163 C 7.588540077209473 1.295650005340576 8.081890106201172 1.5 8.585789680480957 1.5 L 15 1.5 C 15.27569961547852 1.5 15.5 1.724300026893616 15.5 2 L 15.5 4.5 Z" stroke="none"/>
        <path d="M 1 1 L 1 4 L 15 4 L 15 2 L 8.585790634155273 2 C 7.95026969909668 2 7.328060150146484 1.742269992828369 6.878680229187012 1.292900085449219 C 6.689809799194336 1.104020118713379 6.438679695129395 1 6.17156982421875 1 L 1 1 M 1 0 L 6.17156982421875 0 C 6.702010154724121 0 7.210709571838379 0.2107100486755371 7.585789680480957 0.5857901573181152 C 7.845760345458984 0.8457598686218262 8.218130111694336 1 8.585790634155273 1 L 15 1 C 15.55228042602539 1 16 1.447720050811768 16 2 L 16 5 L 0 5 L 0 1 C 0 0.4477200508117676 0.4477100372314453 0 1 0 Z" stroke="none" fill="#e4bb59"/>
      </g>
    </g>
  </g>
</svg>
